"0","tab_inicial = pilotos_ord %>%"
"0","  left_join(carreras, by = ""raceId"") %>% "
"0","  select(driver = nom_ape, points, position, wins, round, year) %>% "
"0","  filter(year %in% 2010:2021) %>%"
"0","  arrange(year, round) %>% "
"0","  filter(round %in% c(5, 10, 15)) "
"2","One or more parsing issues, see `problems()` for details"
"0","tab_inicial"
